{
  "parent": "block/block",
  "textures": {
    "particle": "%PARTICLE%",
    "down": "%DOWN%",
    "up": "%UP%",
    "north": "%NORTH%",
    "south": "%SOUTH%",
    "west": "%WEST%",
    "east": "%EAST%"
  },
  "elements": [
    {
      "from": [5, 6, 6],
      "to": [11, 10, 10],
      "faces": {
        "down": {"uv": [5, 6, 11, 10], "texture": "#down"},
        "up": {"uv": [5, 10, 11, 6], "texture": "#up"},
        "north": {"uv": [5, 12, 11, 16], "texture": "#north"},
        "south": {"uv": [5, 12, 11, 16], "texture": "#south"},
        "west": {"uv": [6, 12, 10, 16], "texture": "#west"},
        "east": {"uv": [6, 12, 10, 16], "texture": "#east"}
      }
    }
  ]
}
