{
  "textures": {
    "particle": "%PARTICLE%",
    "down": "%DOWN%",
    "up": "%UP%",
    "north": "%NORTH%",
    "south": "%SOUTH%",
    "west": "%WEST%",
    "east": "%EAST%"
  },
  "elements": [
    {   "from": [ 0, 0, 0 ],
      "to": [ 16, 8, 16 ],
      "faces": {
        "down":  { "uv": [ 0, 0, 16, 16 ], "texture": "#down", "cullface": "down" },
        "up":    { "uv": [ 0, 0, 16, 16 ], "texture": "#up" },
        "north": { "uv": [ 0, 8, 16, 16 ], "texture": "#north", "cullface": "north" },
        "south": { "uv": [ 0, 8, 16, 16 ], "texture": "#south", "cullface": "south" },
        "west":  { "uv": [ 0, 8, 16, 16 ], "texture": "#west", "cullface": "west" },
        "east":  { "uv": [ 0, 8, 16, 16 ], "texture": "#east", "cullface": "east" }
      }
    },
    {   "from": [ 8, 8, 0 ],
      "to": [ 16, 16, 16 ],
      "faces": {
        "down":  { "uv": [ 8, 0, 16, 16 ], "texture": "#down", "cullface": "down" },
        "up":    { "uv": [ 8, 0, 16, 16 ], "texture": "#up", "cullface": "up" },
        "north": { "uv": [ 0, 0,  8,  8 ], "texture": "#north", "cullface": "north" },
        "south": { "uv": [ 8, 0, 16,  8 ], "texture": "#south", "cullface": "south" },
        "west":  { "uv": [ 0, 0, 16,  8 ], "texture": "#west" },
        "east":  { "uv": [ 0, 0, 16,  8 ], "texture": "#east", "cullface": "east" }
      }
    },
    {   "from": [ 0, 8, 8 ],
      "to": [ 8, 16, 16 ],
      "faces": {
        "down":  { "uv": [ 0, 0,  8,  8 ], "texture": "#down", "cullface": "down" },
        "up":    { "uv": [ 0, 8,  8, 16 ], "texture": "#up", "cullface": "up" },
        "north": { "uv": [ 8, 0, 16,  8 ], "texture": "#north" },
        "south": { "uv": [ 0, 0,  8,  8 ], "texture": "#south", "cullface": "south" },
        "west":  { "uv": [ 8, 0, 16,  8 ], "texture": "#west", "cullface": "west" },
        "east":  { "uv": [ 0, 0,  8,  8 ], "texture": "#east", "cullface": "east" }
      }
    }
  ]
}
