{
  "parent": "block/cube",
  "textures": {
    "particle": "%PARTICLE%",
    "down": "%DOWN%",
    "up": "%UP%",
    "north": "%FRONT%",
    "east": "%SIDE%",
    "south": "%BACK%",
    "west": "%SIDE%"
  }
}
