{
  "ambientocclusion": false,
  "textures": {
    "particle": "%SIDES%",
    "down": "%SIDES%"
  },
  "elements": [
    {   "from": [ %THICKNESS_MIN%, 0, 8 ],
      "to": [ %THICKNESS_MAX%, %HEIGHT%, 8 ],
      "rotation": { "origin": [ 8, 8, 8 ], "axis": "y", "angle": 45, "rescale": true },
      "shade": false,
      "faces": {
        "north": { "uv": [ 0, 0, 16, 16 ], "texture": "#down" },
        "south": { "uv": [ 0, 0, 16, 16 ], "texture": "#down" }
      }
    },
    {   "from": [ 8, 0, %THICKNESS_MIN% ],
      "to": [ 8, %HEIGHT%, %THICKNESS_MAX% ],
      "rotation": { "origin": [ 8, 8, 8 ], "axis": "y", "angle": 45, "rescale": true },
      "shade": false,
      "faces": {
        "west": { "uv": [ 0, 0, 16, 16 ], "texture": "#down" },
        "east": { "uv": [ 0, 0, 16, 16 ], "texture": "#down" }
      }
    }
  ]
}
