{
  "parent": "builtin/generated",
  "textures": {
    "layer0": "%TEXTURE%"
  },
  "display": {
    "thirdperson_righthand": {
      "rotation": [ 0, 0, 0 ],
      "translation": [ 0, 3, 1 ],
      "scale": [ %SCALE:0.55%, %SCALE:0.55%, 0.55 ]
    },
    "firstperson_righthand": {
      "rotation": [ 0, -90, 25 ],
      "translation": [ 1.13, 3.2, 1.13 ],
      "scale": [ %SCALE:0.68%, %SCALE:0.68%, 0.68 ]
    }
  }
}
