{
  "ambientocclusion": false,
  "textures": {
    "particle": "%DOWN%",
    "pane": "%DOWN%"
  },
  "elements": [
    {   "from": [ 7, 0, 0 ],
      "to": [ 9, 16, 9 ],
      "shade": false,
      "faces": {
        "down":  { "uv": [ 7, 0, 9, 9 ], "texture": "#pane" },
        "up":    { "uv": [ 7, 0, 9, 9 ], "texture": "#pane" },
        "north": { "uv": [ 7, 0, 9, 16 ], "texture": "#pane", "cullface": "north" },
        "south": { "uv": [ 7, 0, 9, 16 ], "texture": "#pane" },
        "west":  { "uv": [ 7, 0, 16, 16 ], "texture": "#pane" },
        "east":  { "uv": [ 7, 0, 16, 16 ], "texture": "#pane" }
      }
    }
  ]
}
