{
  "variants": {
    "facing=down": { "model": "%ID%:%BLOCK%", "x": 180 },
    "facing=up": { "model": "%ID%:%BLOCK%" },
    "facing=east": { "model": "%ID%:%BLOCK%_wall" },
    "facing=south": { "model": "%ID%:%BLOCK%_wall", "y": 90 },
    "facing=west": { "model": "%ID%:%BLOCK%_wall", "y": 180 },
    "facing=north": { "model": "%ID%:%BLOCK%_wall", "y": 270 }
  }
}
